ISSS608-VAA - Take-home_Ex02
…
Checking and displaying duplicates

# Check for duplicates
duplicate_rows_1 <- MC2_edges[duplicated(MC2_edges), ]

# Display the duplicate rows
duplicate_rows_1

# A tibble: 155,291 × 8
   arrivaldate hscode valueofgoods_omu volumeteu weightkg source          target
   <chr>       <chr>             <dbl>     <dbl>    <int> <chr>           <chr> 
 1 2028-03-09  851629               NA         0       20 French Crab S.… Mar d…
 2 2028-06-02  851629               NA         0      110 French Crab S.… Mar d…
 3 2028-01-02  852990               NA         0     2830 French Crab S.… -1992 
 4 2028-01-02  852990               NA         0     2830 French Crab S.… -1992 
 5 2028-01-04  852990               NA         0     2805 French Crab S.… -1992 
 6 2028-01-11  852990               NA         0     1895 French Crab S.… -1992 
 7 2028-01-11  852990               NA         0     2790 French Crab S.… -1992 
 8 2028-01-11  852990               NA         0     2790 French Crab S.… -1992 
 9 2028-01-18  852990               NA         0     1895 French Crab S.… -1992 
10 2028-01-18  852990               NA         0     2790 French Crab S.… -1992 
# ℹ 155,281 more rows
# ℹ 1 more variable: valueofgoodsusd <dbl>

Removing duplicates from the data frame

# Remove duplicates
MC2_edges <- MC2_edges[!duplicated(MC2_edges), ]

# View the dataframe without duplicates
MC2_edges

# A tibble: 5,309,087 × 8
   arrivaldate hscode valueofgoods_omu volumeteu weightkg source          target
   <chr>       <chr>             <dbl>     <dbl>    <int> <chr>           <chr> 
 1 2034-02-12  630630           141015         0     4780 AquaDelight In… Barin…
 2 2034-03-13  630630           141015         0     6125 AquaDelight In… Barin…
 3 2028-02-07  470710               NA         0    10855 AquaDelight In… -15045
 4 2028-02-23  470710               NA         0    11250 AquaDelight In… -15045
 5 2028-09-11  470710               NA         0    11165 AquaDelight In… -15045
 6 2028-10-09  470710               NA         0    11290 AquaDelight In… -15045
 7 2028-04-12  304890               NA         0     9000 AquaDelight In… Océan…
 8 2028-06-04  304890               NA         0    19490 AquaDelight In… Olas …
 9 2028-09-03  303890               NA         0     6865 AquaDelight In… Shou …
10 2028-09-08  306170               NA         0    19065 AquaDelight In… Shou …
# ℹ 5,309,077 more rows
# ℹ 1 more variable: valueofgoodsusd <dbl>
…
MC2_graph <- tbl_graph(nodes = MC2_nodes_extracted,
                       edges = MC2_edges_aggregated,
                       directed = TRUE)

Changing the active object

MC2_graph %>%
  activate(edges)%>%
  arrange(desc(weight))

# A tbl_graph: 34576 nodes and 244932 edges
#
# A directed simple graph with 1 component
#
# A tibble: 244,932 × 3
   from    to weight
  <int> <int>  <int>
1  6613  9270  26728
2  3846  9270  26626
3  2442  2286  23734
4  8064  3987  21665
5 11035  9472  20567
6  6546  8172  18017
# ℹ 244,926 more rows
#
# A tibble: 34,576 × 1
  id                                 
  <chr>                              
1 " Direct Herring Company Transit"  
2 " Direct LLC Marine biology"       
3 " Direct Limited Liability Company"
# ℹ 34,573 more rows
…
carp_edges <- carp_edges %>% 
  mutate(arrivaldate = ymd(arrivaldate))

distinct_hscode_carp <- distinct(carp_edges, hscode)%>%
  mutate(category = "carp")

distinct_hscode_carp

# A tibble: 125 × 2
   hscode category
    <int> <chr>   
 1  80440 carp    
 2 940179 carp    
 3 940161 carp    
 4  40729 carp    
 5 700711 carp    
 6 701090 carp    
 7 160419 carp    
 8 841950 carp    
 9 200600 carp    
10 870323 carp    
# ℹ 115 more rows
…
# A tibble: 0 × 6
# ℹ 6 variables: arrivaldate <chr>, hscode <int>, valueofgoods_omu <dbl>,
#   generated_by <chr>, source <chr>, target <chr>

catfish_edges <- catfish_edges %>% 
  mutate(arrivaldate = ymd(arrivaldate))

distinct_hscode_catfish <- distinct(catfish_edges, hscode)%>%
  mutate(category = "catfish")

distinct_hscode_catfish

# A tibble: 188 × 2
   hscode category
    <int> <chr>   
 1 300590 catfish 
 2 961900 catfish 
 3 848180 catfish 
 4 250510 catfish 
 5 640419 catfish 
 6 340600 catfish 
 7 220840 catfish 
 8 761699 catfish 
 9 391732 catfish 
10 650500 catfish 
# ℹ 178 more rows
…
# Display the duplicate rows
duplicate_rows_chub_mackerel_node

# A tibble: 0 × 3
# ℹ 3 variables: shpcountry <chr>, rcvcountry <chr>, id <chr>

chub_mackerel_edges <- as_tibble(chub_mackerel$links) %>%
  select(-dataset)

duplicate_rows_chub_mackerel_edges <- chub_mackerel_edges[duplicated(chub_mackerel_edges), ]

# Display the duplicate rows
duplicate_rows_chub_mackerel_edges

# A tibble: 165 × 8
   arrivaldate hscode valueofgoods_omu volumeteu weightkg generated_by  source  
   <chr>        <int>            <dbl>     <dbl>    <int> <chr>         <chr>   
 1 2034-06-06  160414           119085         0    24030 chub_mackerel Ocean Q…
 2 2034-06-06  160414           119085         0    24030 chub_mackerel Ocean Q…
 3 2034-06-06  160414           119110         0    24020 chub_mackerel Ocean Q…
 4 2034-06-06  160414           119085         0    24030 chub_mackerel Ocean Q…
 5 2034-06-06  160414           119085         0    24030 chub_mackerel Ocean Q…
 6 2034-06-06  160414           119110         0    24035 chub_mackerel Ocean Q…
 7 2034-06-06  160414           119020         0    24025 chub_mackerel Ocean Q…
 8 2034-06-06  160414           119110         0    24020 chub_mackerel Ocean Q…
 9 2034-06-06  160414           119085         0    24030 chub_mackerel Ocean Q…
10 2034-08-14  160414            12210         0     2435 chub_mackerel Ocean Q…
# ℹ 155 more rows
# ℹ 1 more variable: target <chr>

chub_mackerel_edges <- chub_mackerel_edges[!duplicated(chub_mackerel_edges), ]

chub_mackerel_edges <- chub_mackerel_edges %>% 
  mutate(arrivaldate = ymd(arrivaldate))

distinct_hscode_chub_mackerel <- distinct(chub_mackerel_edges, hscode)%>%
  mutate(category = "chub_mackerel")

distinct_hscode_chub_mackerel

# A tibble: 92 × 2
   hscode category     
    <int> <chr>        
 1 160414 chub_mackerel
 2 190490 chub_mackerel
 3 230910 chub_mackerel
 4 160411 chub_mackerel
 5  30749 chub_mackerel
 6 220830 chub_mackerel
 7 721934 chub_mackerel
 8 854442 chub_mackerel
 9 848190 chub_mackerel
10 220421 chub_mackerel
# ℹ 82 more rows
…
# Display the duplicate rows
duplicate_rows_cod2_node

# A tibble: 0 × 3
# ℹ 3 variables: shpcountry <chr>, rcvcountry <chr>, id <chr>

cod2_edges <- as_tibble(cod2$links) %>%
  select(-dataset)

duplicate_rows_cod2_edges <- cod2_edges[duplicated(cod2_edges), ]

# Display the duplicate rows
duplicate_rows_cod2_edges

# A tibble: 189 × 8
   arrivaldate hscode valueofgoods_omu volumeteu weightkg generated_by source   
   <chr>        <int>            <dbl>     <dbl>    <int> <chr>        <chr>    
 1 2034-01-27   30729           148085         0    13175 cod2         Kariba D…
 2 2034-01-27   30729           148085         0    13175 cod2         Kariba D…
 3 2034-01-27   30729           148085         0    13175 cod2         Kariba D…
 4 2034-01-27   30729           148085         0    13175 cod2         Kariba D…
 5 2034-01-27   30729           148085         0    13175 cod2         Kariba D…
 6 2034-01-27   30729           148085         0    13175 cod2         Kariba D…
 7 2034-01-27   30729           148085         0    13175 cod2         Kariba D…
 8 2034-01-27   30729           148085         0    13175 cod2         Kariba D…
 9 2034-01-27   30729           148085         0    13175 cod2         Kariba D…
10 2034-01-27   30729           148085         0    13175 cod2         Kariba D…
# ℹ 179 more rows
# ℹ 1 more variable: target <chr>
…
herring_edges <- herring_edges[!duplicated(herring_edges), ]

herring_edges <- herring_edges %>% 
  mutate(arrivaldate = ymd(arrivaldate))

distinct_hscode_herring <- distinct(herring_edges, hscode)%>%
  mutate(category = "herring")

distinct_hscode_herring

# A tibble: 111 × 2
   hscode category
    <int> <chr>   
 1 841869 herring 
 2 320990 herring 
 3 392690 herring 
 4 701090 herring 
 5 870829 herring 
 6 210390 herring 
 7 950510 herring 
 8 640419 herring 
 9 611020 herring 
10 570390 herring 
# ℹ 101 more rows
…
# Display the duplicate rows
duplicate_rows_lichen_node

# A tibble: 0 × 3
# ℹ 3 variables: shpcountry <chr>, rcvcountry <chr>, id <chr>

lichen_edges <- as_tibble(lichen$links) %>%
  select(-dataset)

duplicate_rows_lichen_edges <- lichen_edges[duplicated(lichen_edges), ]

# Display the duplicate rows
duplicate_rows_lichen_edges

# A tibble: 161 × 8
   arrivaldate hscode volumeteu weightkg generated_by source              target
   <chr>        <int>     <dbl>    <int> <chr>        <chr>               <chr> 
 1 2034-05-19  920590         0     2710 lichen       Jammu Limited Liab… Coral…
 2 2034-05-19  920590         0     2710 lichen       Jammu Limited Liab… Coral…
 3 2034-04-16  920590         0     2675 lichen       Jammu Limited Liab… Coral…
 4 2034-05-19  920590         0     2710 lichen       Jammu Limited Liab… Coral…
 5 2034-11-04  920590         0     1560 lichen       Jammu Limited Liab… Coral…
 6 2034-09-23  920590         0     3995 lichen       Jammu Limited Liab… Coral…
 7 2034-09-23  920590         0     3995 lichen       Jammu Limited Liab… Coral…
 8 2034-07-15  920710         0     2435 lichen       Jammu Limited Liab… Coral…
 9 2034-05-19  920590         0     2710 lichen       Jammu Limited Liab… Coral…
10 2034-07-15  920710         0     2435 lichen       Jammu Limited Liab… Coral…
# ℹ 151 more rows
# ℹ 1 more variable: valueofgoods_omu <dbl>
…
No duplicates

mackerel_edges <- mackerel_edges[!duplicated(mackerel_edges), ]

mackerel_edges <- mackerel_edges %>% 
  mutate(arrivaldate = ymd(arrivaldate))

distinct_hscode_mackerel <- distinct(mackerel_edges, hscode)%>%
  mutate(category = "mackerel")

distinct_hscode_mackerel

# A tibble: 145 × 2
   hscode category
    <int> <chr>   
 1 381190 mackerel
 2 320417 mackerel
 3 860900 mackerel
 4 848180 mackerel
 5 870899 mackerel
 6 851629 mackerel
 7 841490 mackerel
 8 200989 mackerel
 9 210690 mackerel
10 340213 mackerel
# ℹ 135 more rows
…
# Display the duplicate rows
duplicate_rows_pollock_node

# A tibble: 0 × 3
# ℹ 3 variables: shpcountry <chr>, rcvcountry <chr>, id <chr>

pollock_edges <- as_tibble(pollock$links) %>%
  select(-dataset)

duplicate_rows_pollock_edges <- pollock_edges[duplicated(pollock_edges), ]

# Display the duplicate rows
duplicate_rows_pollock_edges

# A tibble: 55 × 8
   arrivaldate hscode valueofgoods_omu volumeteu weightkg generated_by source   
   <chr>        <int>            <dbl>     <dbl>    <int> <chr>        <chr>    
 1 2034-09-19  160414           132055         0    34675 pollock      Ocean Qu…
 2 2034-08-14  160414           354030         5    77035 pollock      Ocean Qu…
 3 2034-08-14  160414           354030         5    77035 pollock      Ocean Qu…
 4 2034-08-22  160414            84355         0    18385 pollock      Ocean Qu…
 5 2034-08-22  160414            84355         0    18385 pollock      Ocean Qu…
 6 2034-09-26  160411            32800         0     6315 pollock      Ocean Qu…
 7 2034-08-14  160414           354030         5    77035 pollock      Ocean Qu…
 8 2034-08-22  160414            84355         0    18385 pollock      Ocean Qu…
 9 2034-12-12  160414            64435         0    16595 pollock      Ocean Qu…
10 2034-09-25  160414           230160         5    41840 pollock      Ocean Qu…
# ℹ 45 more rows
# ℹ 1 more variable: target <chr>

pollock_edges <- pollock_edges[!duplicated(pollock_edges), ]

pollock_edges <- pollock_edges %>% 
  mutate(arrivaldate = ymd(arrivaldate))

distinct_hscode_pollock <- distinct(pollock_edges, hscode)%>%
  mutate(category = "pollock")

distinct_hscode_pollock

# A tibble: 61 × 2
   hscode category
    <int> <chr>   
 1 160414 pollock 
 2 160411 pollock 
 3 481920 pollock 
 4 190490 pollock 
 5 230910 pollock 
 6 190590 pollock 
 7 420212 pollock 
 8  30475 pollock 
 9  30323 pollock 
10 262190 pollock 
# ℹ 51 more rows
…
# Display the duplicate rows
duplicate_rows_salmon_node

# A tibble: 0 × 3
# ℹ 3 variables: shpcountry <chr>, rcvcountry <chr>, id <chr>

salmon_edges <- as_tibble(salmon$links) %>%
  select(-dataset)

duplicate_rows_salmon_edges <- salmon_edges[duplicated(salmon_edges), ]

# Display the duplicate rows
duplicate_rows_salmon_edges

# A tibble: 119 × 8
   arrivaldate hscode valueofgoods_omu volumeteu weightkg generated_by source   
   <chr>        <int>            <dbl>     <dbl>    <int> <chr>        <chr>    
 1 2034-10-23   30619            94150         0    20980 salmon       Samaka C…
 2 2034-10-14   30619            94170         0    20980 salmon       Samaka C…
 3 2034-10-14   30619            94170         0    20980 salmon       Samaka C…
 4 2034-10-14   30619            94170         0    20980 salmon       Samaka C…
 5 2034-10-23   30619            94150         0    20980 salmon       Samaka C…
 6 2034-10-23   30619            94150         0    20980 salmon       Samaka C…
 7 2034-10-23   30619            94150         0    20980 salmon       Samaka C…
 8 2034-10-23   30619            94150         0    20980 salmon       Samaka C…
 9 2034-10-14   30619            94170         0    20980 salmon       Samaka C…
10 2034-10-14   30619            94170         0    20980 salmon       Samaka C…
# ℹ 109 more rows
# ℹ 1 more variable: target <chr>
…
# Display the duplicate rows
duplicate_rows_salmon_wgl_node

# A tibble: 0 × 3
# ℹ 3 variables: shpcountry <chr>, rcvcountry <chr>, id <chr>

salmon_wgl_edges <- as_tibble(salmon_wgl$links) %>%
  select(-dataset)

duplicate_rows_salmon_wgl_edges <- salmon_wgl_edges[duplicated(salmon_wgl_edges), ]

# Display the duplicate rows
duplicate_rows_salmon_wgl_edges

# A tibble: 124 × 8
   arrivaldate hscode volumeteu weightkg generated_by source              target
   <chr>        <int>     <dbl>    <int> <chr>        <chr>               <chr> 
 1 2034-08-13  845490         0     6805 salmon_wgl   Harbah Motorboat A… Playa…
 2 2034-08-13  845490         0     6805 salmon_wgl   Harbah Motorboat A… Playa…
 3 2034-08-13  845490         0     6805 salmon_wgl   Harbah Motorboat A… Playa…
 4 2034-08-13  845490         0     6805 salmon_wgl   Harbah Motorboat A… Playa…
 5 2034-08-13  845490         0     6805 salmon_wgl   Harbah Motorboat A… Playa…
 6 2034-08-13  845490         0     6805 salmon_wgl   Harbah Motorboat A… Playa…
 7 2034-08-13  845490         0     6805 salmon_wgl   Harbah Motorboat A… Playa…
 8 2034-08-13  845490         0     6805 salmon_wgl   Harbah Motorboat A… Playa…
 9 2034-08-13  845490         0     6805 salmon_wgl   Harbah Motorboat A… Playa…
10 2034-08-13  845490         0     6805 salmon_wgl   Harbah Motorboat A… Playa…
# ℹ 114 more rows
# ℹ 1 more variable: valueofgoods_omu <dbl>

salmon_wgl_edges <- salmon_wgl_edges[!duplicated(salmon_wgl_edges), ]

salmon_wgl_edges <- salmon_wgl_edges %>% 
  mutate(arrivaldate = ymd(arrivaldate))

distinct_hscode_salmon_wgl <- distinct(salmon_wgl_edges, hscode)%>%
  mutate(category = "salmon_wgl")

distinct_hscode_salmon_wgl

# A tibble: 74 × 2
   hscode category  
    <int> <chr>     
 1 845490 salmon_wgl
 2 300510 salmon_wgl
 3 841290 salmon_wgl
 4 850790 salmon_wgl
 5 848180 salmon_wgl
 6  71080 salmon_wgl
 7 820559 salmon_wgl
 8  20319 salmon_wgl
 9 410631 salmon_wgl
10 732690 salmon_wgl
# ℹ 64 more rows
…
# Display the duplicate rows
duplicate_rows_shark_node

# A tibble: 0 × 3
# ℹ 3 variables: shpcountry <chr>, rcvcountry <chr>, id <chr>

shark_edges <- as_tibble(shark$links) %>%
  select(-dataset)

duplicate_rows_shark_edges <- shark_edges[duplicated(shark_edges), ]

# Display the duplicate rows
duplicate_rows_shark_edges

# A tibble: 237 × 8
   arrivaldate hscode volumeteu weightkg generated_by source              target
   <chr>        <int>     <dbl>    <int> <chr>        <chr>               <chr> 
 1 2034-09-23  920590         0     3995 shark        Jammu Limited Liab… Coral…
 2 2034-07-15  920710         0     2435 shark        Jammu Limited Liab… Coral…
 3 2034-05-19  920590         0     2710 shark        Jammu Limited Liab… Coral…
 4 2034-11-04  920590         0     1560 shark        Jammu Limited Liab… Coral…
 5 2034-04-16  920590         0     2675 shark        Jammu Limited Liab… Coral…
 6 2034-07-15  920710         0     2435 shark        Jammu Limited Liab… Coral…
 7 2034-09-23  920590         0     3995 shark        Jammu Limited Liab… Coral…
 8 2034-07-15  920710         0     2435 shark        Jammu Limited Liab… Coral…
 9 2034-07-15  920710         0     2435 shark        Jammu Limited Liab… Coral…
10 2034-11-04  920590         0     1560 shark        Jammu Limited Liab… Coral…
# ℹ 227 more rows
# ℹ 1 more variable: valueofgoods_omu <dbl>
…
# Display the duplicate rows
duplicate_rows_tuna_node

# A tibble: 0 × 3
# ℹ 3 variables: shpcountry <chr>, rcvcountry <chr>, id <chr>

tuna_edges <- as_tibble(tuna$links) %>%
  select(-dataset)

duplicate_rows_tuna_edges <- tuna_edges[duplicated(tuna_edges), ]

# Display the duplicate rows
duplicate_rows_tuna_edges

# A tibble: 257 × 6
   arrivaldate hscode generated_by source                target valueofgoods_omu
   <chr>        <int> <chr>        <chr>                 <chr>             <dbl>
 1 2034-08-05  441600 tuna         Andhra Pradesh  Sp W… Jhark…               NA
 2 2034-09-21  840999 tuna         Andhra Pradesh  Sp W… Jhark…               NA
 3 2034-09-21  220300 tuna         Andhra Pradesh  Sp W… Jhark…               NA
 4 2034-08-19  847989 tuna         Andhra Pradesh  Sp W… Jhark…               NA
 5 2034-08-05  441600 tuna         Andhra Pradesh  Sp W… Jhark…               NA
 6 2034-08-05  441600 tuna         Andhra Pradesh  Sp W… Jhark…               NA
 7 2034-08-05  441600 tuna         Andhra Pradesh  Sp W… Jhark…               NA
 8 2034-08-19  847989 tuna         Andhra Pradesh  Sp W… Jhark…               NA
 9 2034-08-05  441600 tuna         Andhra Pradesh  Sp W… Jhark…               NA
10 2034-08-05  441600 tuna         Andhra Pradesh  Sp W… Jhark…               NA
# ℹ 247 more rows

tuna_edges <- tuna_edges[!duplicated(tuna_edges), ]

tuna_edges <- tuna_edges %>% 
  mutate(arrivaldate = ymd(arrivaldate))

distinct_hscode_tuna <- distinct(tuna_edges, hscode)%>%
  mutate(category = "tuna")

distinct_hscode_tuna

# A tibble: 33 × 2
   hscode category
    <int> <chr>   
 1 840999 tuna    
 2 846820 tuna    
 3 220300 tuna    
 4 847989 tuna    
 5 441600 tuna    
 6 850440 tuna    
 7 853990 tuna    
 8 890710 tuna    
 9 440791 tuna    
10 200911 tuna    
# ℹ 23 more rows
…
